<?xml version="1.0" encoding="UTF-8" standalone="no"?>
<!-- Created with Inkscape (http://www.inkscape.org/) -->

<svg
   xmlns:dc="http://purl.org/dc/elements/1.1/"
   xmlns:cc="http://creativecommons.org/ns#"
   xmlns:rdf="http://www.w3.org/1999/02/22-rdf-syntax-ns#"
   xmlns:svg="http://www.w3.org/2000/svg"
   xmlns="http://www.w3.org/2000/svg"
   xmlns:sodipodi="http://sodipodi.sourceforge.net/DTD/sodipodi-0.dtd"
   xmlns:inkscape="http://www.inkscape.org/namespaces/inkscape"
   width="210mm"
   height="132mm"
   viewBox="0 0 744.09449 467.71648"
   id="svg2"
   version="1.1"
   inkscape:version="0.91 r13725"
   sodipodi:docname="graphical_abstract_v2.svg">
  <defs
     id="defs4">
    <marker
       inkscape:stockid="Arrow1Mend"
       orient="auto"
       refY="0"
       refX="0"
       id="marker5521"
       style="overflow:visible"
       inkscape:isstock="true">
      <path
         id="path5236"
         d="M 0,0 5,-5 -12.5,0 5,5 0,0 Z"
         style="fill:#000000;fill-opacity:1;fill-rule:evenodd;stroke:#000000;stroke-width:1pt;stroke-opacity:1"
         transform="matrix(-0.4,0,0,-0.4,-4,0)"
         inkscape:connector-curvature="0" />
    </marker>
    <marker
       inkscape:stockid="Arrow1Send"
       orient="auto"
       refY="0"
       refX="0"
       id="Arrow1Send"
       style="overflow:visible"
       inkscape:isstock="true">
      <path
         id="path5242"
         d="M 0,0 5,-5 -12.5,0 5,5 0,0 Z"
         style="fill:#000000;fill-opacity:1;fill-rule:evenodd;stroke:#000000;stroke-width:1pt;stroke-opacity:1"
         transform="matrix(-0.2,0,0,-0.2,-1.2,0)"
         inkscape:connector-curvature="0" />
    </marker>
    <marker
       inkscape:stockid="Arrow1Mend"
       orient="auto"
       refY="0"
       refX="0"
       id="Arrow1Mend"
       style="overflow:visible">
      <path
         id="path6912"
         d="M 0,0 5,-5 -12.5,0 5,5 0,0 Z"
         style="fill-rule:evenodd;stroke:#000000;stroke-width:1pt"
         transform="matrix(-0.4,0,0,-0.4,-4,0)"
         inkscape:connector-curvature="0" />
    </marker>
    <marker
       inkscape:stockid="Arrow1MendD"
       orient="auto"
       refY="0"
       refX="0"
       id="Arrow1MendD"
       style="overflow:visible">
      <path
         id="path6951"
         d="M 0,0 5,-5 -12.5,0 5,5 0,0 Z"
         style="fill:#cc0000;fill-rule:evenodd;stroke:#cc0000;stroke-width:1pt"
         transform="matrix(-0.4,0,0,-0.4,-4,0)"
         inkscape:connector-curvature="0" />
    </marker>
    <marker
       inkscape:stockid="Arrow1Mend"
       orient="auto"
       refY="0"
       refX="0"
       id="marker5521-3"
       style="overflow:visible"
       inkscape:isstock="true">
      <path
         inkscape:connector-curvature="0"
         id="path5236-6"
         d="M 0,0 5,-5 -12.5,0 5,5 0,0 Z"
         style="fill:#000000;fill-opacity:1;fill-rule:evenodd;stroke:#000000;stroke-width:1pt;stroke-opacity:1"
         transform="matrix(-0.4,0,0,-0.4,-4,0)" />
    </marker>
    <marker
       inkscape:stockid="Arrow1Mend"
       orient="auto"
       refY="0"
       refX="0"
       id="marker5521-3-1"
       style="overflow:visible"
       inkscape:isstock="true">
      <path
         inkscape:connector-curvature="0"
         id="path5236-6-0"
         d="M 0,0 5,-5 -12.5,0 5,5 0,0 Z"
         style="fill:#000000;fill-opacity:1;fill-rule:evenodd;stroke:#000000;stroke-width:1pt;stroke-opacity:1"
         transform="matrix(-0.4,0,0,-0.4,-4,0)" />
    </marker>
    <marker
       inkscape:stockid="Arrow1Mend"
       orient="auto"
       refY="0"
       refX="0"
       id="marker5521-3-1-5"
       style="overflow:visible"
       inkscape:isstock="true">
      <path
         inkscape:connector-curvature="0"
         id="path5236-6-0-0"
         d="M 0,0 5,-5 -12.5,0 5,5 0,0 Z"
         style="fill:#000000;fill-opacity:1;fill-rule:evenodd;stroke:#000000;stroke-width:1pt;stroke-opacity:1"
         transform="matrix(-0.4,0,0,-0.4,-4,0)" />
    </marker>
    <marker
       inkscape:stockid="Arrow1Mend"
       orient="auto"
       refY="0"
       refX="0"
       id="marker5521-3-1-3"
       style="overflow:visible"
       inkscape:isstock="true">
      <path
         inkscape:connector-curvature="0"
         id="path5236-6-0-6"
         d="M 0,0 5,-5 -12.5,0 5,5 0,0 Z"
         style="fill:#000000;fill-opacity:1;fill-rule:evenodd;stroke:#000000;stroke-width:1pt;stroke-opacity:1"
         transform="matrix(-0.4,0,0,-0.4,-4,0)" />
    </marker>
    <marker
       inkscape:stockid="Arrow1Mend"
       orient="auto"
       refY="0"
       refX="0"
       id="marker5521-3-1-3-6"
       style="overflow:visible"
       inkscape:isstock="true">
      <path
         inkscape:connector-curvature="0"
         id="path5236-6-0-6-2"
         d="M 0,0 5,-5 -12.5,0 5,5 0,0 Z"
         style="fill:#000000;fill-opacity:1;fill-rule:evenodd;stroke:#000000;stroke-width:1pt;stroke-opacity:1"
         transform="matrix(-0.4,0,0,-0.4,-4,0)" />
    </marker>
    <marker
       inkscape:stockid="Arrow1Mend"
       orient="auto"
       refY="0"
       refX="0"
       id="marker5521-3-1-3-6-3"
       style="overflow:visible"
       inkscape:isstock="true">
      <path
         inkscape:connector-curvature="0"
         id="path5236-6-0-6-2-6"
         d="M 0,0 5,-5 -12.5,0 5,5 0,0 Z"
         style="fill:#000000;fill-opacity:1;fill-rule:evenodd;stroke:#000000;stroke-width:1pt;stroke-opacity:1"
         transform="matrix(-0.4,0,0,-0.4,-4,0)" />
    </marker>
    <marker
       inkscape:stockid="Arrow1Mend"
       orient="auto"
       refY="0"
       refX="0"
       id="marker5521-3-1-3-6-3-5"
       style="overflow:visible"
       inkscape:isstock="true">
      <path
         inkscape:connector-curvature="0"
         id="path5236-6-0-6-2-6-3"
         d="M 0,0 5,-5 -12.5,0 5,5 0,0 Z"
         style="fill:#000000;fill-opacity:1;fill-rule:evenodd;stroke:#000000;stroke-width:1pt;stroke-opacity:1"
         transform="matrix(-0.4,0,0,-0.4,-4,0)" />
    </marker>
    <marker
       inkscape:stockid="Arrow1Mend"
       orient="auto"
       refY="0"
       refX="0"
       id="marker5521-3-1-3-1"
       style="overflow:visible"
       inkscape:isstock="true">
      <path
         inkscape:connector-curvature="0"
         id="path5236-6-0-6-27"
         d="M 0,0 5,-5 -12.5,0 5,5 0,0 Z"
         style="fill:#000000;fill-opacity:1;fill-rule:evenodd;stroke:#000000;stroke-width:1pt;stroke-opacity:1"
         transform="matrix(-0.4,0,0,-0.4,-4,0)" />
    </marker>
    <marker
       inkscape:stockid="Arrow1Mend"
       orient="auto"
       refY="0"
       refX="0"
       id="marker5521-3-1-3-6-3-6"
       style="overflow:visible"
       inkscape:isstock="true">
      <path
         inkscape:connector-curvature="0"
         id="path5236-6-0-6-2-6-2"
         d="M 0,0 5,-5 -12.5,0 5,5 0,0 Z"
         style="fill:#000000;fill-opacity:1;fill-rule:evenodd;stroke:#000000;stroke-width:1pt;stroke-opacity:1"
         transform="matrix(-0.4,0,0,-0.4,-4,0)" />
    </marker>
    <marker
       inkscape:stockid="Arrow1Mend"
       orient="auto"
       refY="0"
       refX="0"
       id="marker5521-3-1-3-6-3-6-1"
       style="overflow:visible"
       inkscape:isstock="true">
      <path
         inkscape:connector-curvature="0"
         id="path5236-6-0-6-2-6-2-2"
         d="M 0,0 5,-5 -12.5,0 5,5 0,0 Z"
         style="fill:#000000;fill-opacity:1;fill-rule:evenodd;stroke:#000000;stroke-width:1pt;stroke-opacity:1"
         transform="matrix(-0.4,0,0,-0.4,-4,0)" />
    </marker>
  </defs>
  <sodipodi:namedview
     id="base"
     pagecolor="#ffffff"
     bordercolor="#666666"
     borderopacity="1.0"
     inkscape:pageopacity="0.0"
     inkscape:pageshadow="2"
     inkscape:zoom="1.4"
     inkscape:cx="283.17361"
     inkscape:cy="233.01538"
     inkscape:document-units="px"
     inkscape:current-layer="layer1"
     showgrid="false"
     inkscape:window-width="1920"
     inkscape:window-height="1056"
     inkscape:window-x="0"
     inkscape:window-y="24"
     inkscape:window-maximized="1">
    <inkscape:grid
       type="xygrid"
       id="grid7824" />
  </sodipodi:namedview>
  <metadata
     id="metadata7">
    <rdf:RDF>
      <cc:Work
         rdf:about="">
        <dc:format>image/svg+xml</dc:format>
        <dc:type
           rdf:resource="http://purl.org/dc/dcmitype/StillImage" />
        <dc:title />
      </cc:Work>
    </rdf:RDF>
  </metadata>
  <g
     inkscape:label="Layer 1"
     inkscape:groupmode="layer"
     id="layer1"
     transform="translate(0,-584.64572)">
    <path
       style="fill:#f2ecea;fill-opacity:1;stroke:#a7a7a7;stroke-width:3.40186429;stroke-linecap:butt;stroke-linejoin:miter;stroke-miterlimit:4;stroke-dasharray:none;stroke-opacity:1"
       d="M 18.314885,1036.4359 C 6.2996731,921.6013 36.156627,857.49656 32.872009,797.76896 116.39893,872.7918 190.60733,888.89791 324.17164,973.47144 225.49883,973.59067 73.61132,947.73323 18.314885,1036.4359 Z"
       id="path3753-3-5-5"
       inkscape:connector-curvature="0"
       sodipodi:nodetypes="cccc" />
    <g
       id="g9107"
       transform="matrix(0.37003179,-0.85870633,0.85870633,0.37003179,-540.88672,802.34381)">
      <ellipse
         transform="matrix(-0.52106534,-0.85351679,0.85351679,-0.52106534,0,0)"
         ry="10.770721"
         rx="21.607321"
         cy="-283.10596"
         cx="-822.34509"
         id="path4150-35"
         style="fill:#d873ff;fill-opacity:0.49746195;stroke:#a7a7a7;stroke-width:0.92226362;stroke-linecap:round;stroke-miterlimit:4;stroke-dasharray:none;stroke-dashoffset:0;stroke-opacity:1" />
      <path
         sodipodi:nodetypes="cszsssssssssc"
         inkscape:connector-curvature="0"
         id="path4152-62"
         d="m 195.50886,849.25447 c 3.45318,-0.62141 2.98563,11.93187 2.06062,15.75838 -0.63784,2.6386 -7.15972,-0.0531 -9.39784,-1.66566 -2.23812,-1.61251 5.87442,-4.85416 4.11323,-8.64406 -1.061,-2.28319 -7.86815,5.83702 -9.67245,3.61959 -2.20571,-2.71076 -7.67364,-9.20522 -4.37118,-11.14096 7.30517,-4.28196 10.49726,-5.96582 -2.40803,-3.95292 -2.12717,0.33179 -1.23852,-5.1398 -1.02011,-6.5741 0.80295,-5.27272 12.03416,-4.01203 8.58473,-1.22893 -5.82491,4.69971 6.60519,2.4403 8.54364,6.6275 0.69206,1.49489 -9.41608,6.08817 -8.12911,8.82906 0.71718,1.52739 4.6706,-0.36363 11.69664,-1.62798 z"
         style="fill:#d873ff;fill-opacity:0.49746195;stroke:#a7a7a7;stroke-width:0.92226362;stroke-linecap:round;stroke-miterlimit:4;stroke-dasharray:none;stroke-dashoffset:0;stroke-opacity:1" />
    </g>
    <g
       id="g9111"
       transform="matrix(0.93504014,0,0,0.93504014,3.1097437,63.499257)">
      <g
         id="g9103">
        <ellipse
           style="fill:#d873ff;fill-opacity:0.49746195;stroke:#a7a7a7;stroke-width:0.92226362;stroke-linecap:round;stroke-miterlimit:4;stroke-dasharray:none;stroke-dashoffset:0;stroke-opacity:1"
           id="path4150-0"
           cx="483.78134"
           cy="675.03949"
           rx="21.607319"
           ry="10.770721"
           transform="matrix(0.84940272,0.52774522,-0.52774522,0.84940272,0,0)" />
        <path
           style="fill:#d873ff;fill-opacity:0.49746195;stroke:#a7a7a7;stroke-width:0.92226362;stroke-linecap:round;stroke-miterlimit:4;stroke-dasharray:none;stroke-dashoffset:0;stroke-opacity:1"
           d="m 47.018891,832.71744 c -2.804174,2.10883 -8.035485,-9.31206 -8.931314,-13.1455 -0.617725,-2.64339 6.417794,-3.17435 9.142119,-2.74145 2.724327,0.4329 -3.061733,6.97836 0.216485,9.57035 1.974922,1.56152 4.399932,-8.75325 7.00905,-7.58492 3.189584,1.42826 10.99507,4.76751 8.916925,7.98227 -4.596928,7.11118 -6.689852,10.05133 3.929228,2.44651 1.750331,-1.25351 3.418901,4.03268 3.869268,5.41185 1.655609,5.07003 -8.941534,8.99812 -7.113444,4.96051 3.087026,-6.81815 -6.996767,0.793 -10.612064,-2.07402 -1.290722,-1.02357 5.669262,-9.6741 3.286576,-11.54268 -1.327771,-1.04128 -4.007376,2.42647 -9.712911,6.71721 z"
           id="path4152-9"
           inkscape:connector-curvature="0"
           sodipodi:nodetypes="cszsssssssssc" />
      </g>
    </g>
    <g
       id="g6677"
       transform="matrix(0.84362975,0,0,0.84362975,32.222169,187.80384)">
      <ellipse
         transform="scale(1,-1)"
         ry="78.341789"
         rx="157.16273"
         cy="-624.38934"
         cx="404.50928"
         id="path4150-3"
         style="fill:#e9b1ff;fill-opacity:0.49746195;stroke:#a7a7a7;stroke-width:6.70816612;stroke-linecap:round;stroke-miterlimit:4;stroke-dasharray:none;stroke-dashoffset:0;stroke-opacity:1" />
      <path
         sodipodi:nodetypes="cszssssssssc"
         inkscape:connector-curvature="0"
         id="path4152-6"
         d="m 391.4413,568.17649 c -11.40957,-24.25999 -118.97649,25.47666 -124.43543,48.89119 -4.48317,19.22923 27.46541,44.2471 45.95858,52.03015 18.49318,7.78307 5.34574,-32.13806 35.54884,-35.56816 18.19555,-2.06645 -3.89116,48.24052 16.71326,51.03772 25.18842,3.41946 84.28007,12.71761 85.73134,-15.08758 2.62956,-50.38009 11.10374,-46.2231 33.66674,-0.0322 6.87297,14.07032 36.60254,-11.79097 44.67908,-18.58297 29.69054,-24.96849 -20.70242,-89.91534 -24.90691,-57.95274 -7.09985,53.97377 -40.18345,-31.7571 -73.52485,-27.9217 -11.90343,1.3692 -2.13241,19.77023 -18.95181,24.3298 -15.45953,4.19096 -12.50264,-1.03078 -20.47884,-21.14351 z"
         style="fill:#e6a7ff;fill-opacity:0.62944162;stroke:#a7a7a7;stroke-width:6.70816612;stroke-linecap:round;stroke-miterlimit:4;stroke-dasharray:none;stroke-dashoffset:0;stroke-opacity:1" />
    </g>
    <ellipse
       style="fill:#d873ff;fill-opacity:0.49746195;stroke:#a7a7a7;stroke-width:0.8623535;stroke-linecap:round;stroke-miterlimit:4;stroke-dasharray:none;stroke-dashoffset:0;stroke-opacity:1"
       id="path4150-1"
       cx="782.45703"
       cy="-556.26263"
       rx="20.203711"
       ry="10.071056"
       transform="matrix(0.73643342,0.67651003,0.67651003,-0.73643342,0,0)" />
    <path
       style="fill:#d873ff;fill-opacity:0.49746195;stroke:#a7a7a7;stroke-width:0.8623535;stroke-linecap:round;stroke-miterlimit:4;stroke-dasharray:none;stroke-dashoffset:0;stroke-opacity:1"
       d="m 201.61197,931.08309 c 1.19543,-3.05519 -10.4048,-4.89969 -14.08251,-4.74415 -2.53599,0.10727 -1.24788,6.5775 -0.17399,8.92262 1.07389,2.34513 5.51675,-4.5097 8.67439,-2.20775 1.9023,1.38677 -6.77943,6.16064 -5.07206,8.21736 2.08722,2.51429 7.05457,8.70636 9.42838,6.02746 5.25094,-5.92581 7.37371,-8.54907 3.19003,2.92485 -0.68958,1.89124 4.49063,2.06698 5.84592,2.12637 4.98225,0.21833 5.85977,-10.31276 2.68203,-7.6525 -5.3661,4.49226 -1.04235,-6.50113 -4.53235,-9.03763 -1.24599,-0.90559 -7.29017,7.53512 -9.5714,5.85815 -1.27124,-0.9345 1.17942,-4.21865 3.61167,-10.43488 z"
       id="path4152-2"
       inkscape:connector-curvature="0"
       sodipodi:nodetypes="cszsssssssssc" />
    <rect
       style="fill:none;fill-opacity:1;stroke:#000000;stroke-width:2.53088927;stroke-linecap:round;stroke-miterlimit:4;stroke-dasharray:none;stroke-dashoffset:0;stroke-opacity:1"
       id="rect4232"
       width="50.784985"
       height="50.784985"
       x="175.61122"
       y="-964.74725"
       transform="scale(1,-1)" />
    <path
       style="fill:none;fill-rule:evenodd;stroke:#000000;stroke-width:1.68725944;stroke-linecap:butt;stroke-linejoin:miter;stroke-miterlimit:4;stroke-dasharray:3.37451899, 6.749038;stroke-dashoffset:0;stroke-opacity:1"
       d="M 176.20563,912.88636 234.231,722.43537"
       id="path4240"
       inkscape:connector-curvature="0"
       sodipodi:nodetypes="cc" />
    <path
       style="fill:none;fill-rule:evenodd;stroke:#000000;stroke-width:1.68725944;stroke-linecap:butt;stroke-linejoin:miter;stroke-miterlimit:4;stroke-dasharray:3.37451899, 6.749038;stroke-dashoffset:0;stroke-opacity:1"
       d="M 226.8221,913.35863 407.57456,786.29923"
       id="path4242"
       inkscape:connector-curvature="0"
       sodipodi:nodetypes="cc" />
    <g
       id="g5152"
       transform="matrix(0.60631594,0,0,0.60631594,81.789472,482.35487)">
      <rect
         ry="12.694372"
         rx="23.918867"
         y="750.97174"
         x="-86.205833"
         height="27.66037"
         width="66.144341"
         id="rect5967"
         style="fill:#00c8ff;fill-opacity:1;stroke:#000000;stroke-width:1.72160864;stroke-miterlimit:4;stroke-dasharray:none;stroke-opacity:1" />
      <text
         sodipodi:linespacing="125%"
         id="text5872-4"
         y="770.90509"
         x="-72.670586"
         style="font-style:normal;font-variant:normal;font-weight:bold;font-stretch:normal;font-size:17.39635849px;line-height:125%;font-family:Loma;-inkscape-font-specification:'Loma Bold';letter-spacing:0px;word-spacing:0px;fill:#000000;fill-opacity:1;stroke:none"
         xml:space="preserve"><tspan
           y="770.90509"
           x="-72.670586"
           id="tspan5874-54"
           sodipodi:role="line">HIFa</tspan></text>
    </g>
    <g
       id="g5157"
       transform="matrix(0.60631594,0,0,0.60631594,141.39413,460.46426)">
      <rect
         ry="12.694372"
         rx="23.918867"
         y="781.3363"
         x="-82.530357"
         height="27.66037"
         width="66.144341"
         id="rect5967-8"
         style="fill:#00c8ff;fill-opacity:1;stroke:#000000;stroke-width:1.72160864;stroke-miterlimit:4;stroke-dasharray:none;stroke-opacity:1" />
      <text
         sodipodi:linespacing="125%"
         id="text5872-4-3"
         y="801.32489"
         x="-72.643425"
         style="font-style:normal;font-variant:normal;font-weight:bold;font-stretch:normal;font-size:17.39635849px;line-height:125%;font-family:Loma;-inkscape-font-specification:'Loma Bold';letter-spacing:0px;word-spacing:0px;fill:#000000;fill-opacity:1;stroke:none"
         xml:space="preserve"><tspan
           y="801.32489"
           x="-72.643425"
           id="tspan5874-54-7"
           sodipodi:role="line">ARNT</tspan></text>
    </g>
    <text
       xml:space="preserve"
       style="font-style:normal;font-weight:normal;font-size:17.01837349px;line-height:125%;font-family:Sans;letter-spacing:0px;word-spacing:0px;fill:#cc0000;fill-opacity:1;stroke:none"
       x="45.771542"
       y="974.93042"
       id="text3756-0-22"
       sodipodi:linespacing="125%"><tspan
         sodipodi:role="line"
         id="tspan3758-4-28"
         x="45.771542"
         y="974.93042"
         style="font-weight:bold;font-size:17.01837349px;-inkscape-font-specification:'Sans Bold';fill:#cc0000;fill-opacity:1">O<tspan
   style="font-weight:bold;font-size:17.01837349px;-inkscape-font-specification:'Sans Bold';baseline-shift:sub;fill:#cc0000;fill-opacity:1"
   id="tspan3760-1-3">2</tspan></tspan></text>
    <text
       xml:space="preserve"
       style="font-style:normal;font-weight:normal;font-size:13.57062435px;line-height:125%;font-family:Sans;letter-spacing:0px;word-spacing:0px;fill:#cc0000;fill-opacity:1;stroke:none"
       x="96.994576"
       y="929.46008"
       id="text3756-0-22-7"
       sodipodi:linespacing="125%"><tspan
         sodipodi:role="line"
         id="tspan3758-4-28-6"
         x="96.994576"
         y="929.46008"
         style="font-weight:bold;font-size:13.57062435px;-inkscape-font-specification:'Sans Bold';fill:#cc0000;fill-opacity:1">Hypoxia</tspan></text>
    <path
       style="fill:none;fill-rule:evenodd;stroke:#000000;stroke-width:1.85598552;stroke-linecap:butt;stroke-linejoin:miter;stroke-miterlimit:4;stroke-dasharray:none;stroke-opacity:1;marker-end:url(#marker5521-3)"
       d="m 41.030198,960.70305 c -2.292235,8.78552 -3.129352,10.71984 -5.180773,26.39143"
       id="path5219-0"
       inkscape:connector-curvature="0"
       sodipodi:nodetypes="cc" />
    <text
       xml:space="preserve"
       style="font-style:normal;font-variant:normal;font-weight:500;font-stretch:normal;font-size:35.97747421px;line-height:125%;font-family:KacstLetter;-inkscape-font-specification:'KacstLetter Medium';letter-spacing:0px;word-spacing:0px;fill:#000000;fill-opacity:1;stroke:none;stroke-width:1px;stroke-linecap:butt;stroke-linejoin:miter;stroke-opacity:1"
       x="72.139107"
       y="764.90875"
       id="text6437"
       sodipodi:linespacing="125%"><tspan
         sodipodi:role="line"
         id="tspan6439"
         x="72.139107"
         y="764.90875"
         style="font-style:normal;font-variant:normal;font-weight:normal;font-stretch:normal;font-family:Garuda;-inkscape-font-specification:Garuda">SLOW</tspan></text>
    <text
       xml:space="preserve"
       style="font-style:normal;font-variant:normal;font-weight:500;font-stretch:normal;font-size:35.97747421px;line-height:125%;font-family:KacstLetter;-inkscape-font-specification:'KacstLetter Medium';letter-spacing:0px;word-spacing:0px;fill:#000000;fill-opacity:1;stroke:none;stroke-width:1px;stroke-linecap:butt;stroke-linejoin:miter;stroke-opacity:1"
       x="379.34793"
       y="944.65717"
       id="text6437-6"
       sodipodi:linespacing="125%"><tspan
         sodipodi:role="line"
         id="tspan6439-2"
         x="379.34793"
         y="944.65717"
         style="font-style:normal;font-variant:normal;font-weight:normal;font-stretch:normal;font-family:Garuda;-inkscape-font-specification:Garuda">FAST</tspan></text>
    <text
       xml:space="preserve"
       style="font-style:normal;font-weight:normal;font-size:21.09074402px;line-height:125%;font-family:sans-serif;letter-spacing:0px;word-spacing:0px;fill:#000000;fill-opacity:1;stroke:none;stroke-width:1px;stroke-linecap:butt;stroke-linejoin:miter;stroke-opacity:1"
       x="90.24221"
       y="787.35608"
       id="text6459"
       sodipodi:linespacing="125%"><tspan
         sodipodi:role="line"
         id="tspan6461"
         x="90.24221"
         y="787.35608"
         style="font-style:normal;font-variant:normal;font-weight:normal;font-stretch:normal;font-family:Garuda;-inkscape-font-specification:Garuda">(1-2hrs)</tspan></text>
    <text
       xml:space="preserve"
       style="font-style:normal;font-weight:normal;font-size:21.09074402px;line-height:125%;font-family:sans-serif;letter-spacing:0px;word-spacing:0px;fill:#000000;fill-opacity:1;stroke:none;stroke-width:1px;stroke-linecap:butt;stroke-linejoin:miter;stroke-opacity:1"
       x="379.33478"
       y="967.13434"
       id="text6459-9"
       sodipodi:linespacing="125%"><tspan
         sodipodi:role="line"
         id="tspan6461-9"
         x="379.33478"
         y="967.13434"
         style="font-style:normal;font-variant:normal;font-weight:normal;font-stretch:normal;font-family:Garuda;-inkscape-font-specification:Garuda">(seconds)</tspan></text>
    <text
       xml:space="preserve"
       style="font-style:normal;font-variant:normal;font-weight:500;font-stretch:normal;font-size:20.56887817px;line-height:125%;font-family:KacstLetter;-inkscape-font-specification:'KacstLetter Medium';text-align:center;letter-spacing:0px;word-spacing:0px;text-anchor:middle;fill:#cc0000;fill-opacity:1;stroke:none;stroke-width:1px;stroke-linecap:butt;stroke-linejoin:miter;stroke-opacity:1"
       x="126.16991"
       y="669.33704"
       id="text6437-3"
       sodipodi:linespacing="125%"><tspan
         sodipodi:role="line"
         id="tspan6439-1"
         x="126.16991"
         y="669.33704"
         style="font-style:normal;font-variant:normal;font-weight:normal;font-stretch:normal;font-family:Garuda;-inkscape-font-specification:Garuda;text-align:center;text-anchor:middle;fill:#cc0000;fill-opacity:1">Oxygen sensing</tspan><tspan
         sodipodi:role="line"
         x="126.16991"
         y="695.04816"
         style="font-style:normal;font-variant:normal;font-weight:normal;font-stretch:normal;font-family:Garuda;-inkscape-font-specification:Garuda;text-align:center;text-anchor:middle;fill:#cc0000;fill-opacity:1"
         id="tspan6605">with HIFa</tspan><tspan
         sodipodi:role="line"
         x="126.16991"
         y="720.75922"
         style="font-style:normal;font-variant:normal;font-weight:normal;font-stretch:normal;font-family:Garuda;-inkscape-font-specification:Garuda;text-align:center;text-anchor:middle;fill:#cc0000;fill-opacity:1"
         id="tspan6607">transcription factor</tspan></text>
    <g
       id="g6672"
       transform="matrix(0.93270318,0,0,0.93270318,53.431519,58.980622)">
      <rect
         ry="12.694372"
         rx="23.918867"
         y="720.84717"
         x="326.75662"
         height="32.694839"
         width="33.390476"
         id="rect6499"
         style="fill:#ffce62;fill-opacity:1;stroke:#000000;stroke-width:1.72160864;stroke-linecap:square;stroke-linejoin:miter;stroke-miterlimit:4;stroke-dasharray:none;stroke-dashoffset:0;stroke-opacity:1" />
      <text
         sodipodi:linespacing="125%"
         id="text5872-4-3-0"
         y="741.78546"
         x="333.0553"
         style="font-style:normal;font-variant:normal;font-weight:bold;font-stretch:normal;font-size:12.50274754px;line-height:125%;font-family:Loma;-inkscape-font-specification:'Loma Bold';letter-spacing:0px;word-spacing:0px;fill:#000000;fill-opacity:1;stroke:none"
         xml:space="preserve"><tspan
           y="741.78546"
           x="333.0553"
           id="tspan5874-54-7-2"
           sodipodi:role="line">???</tspan></text>
    </g>
    <text
       xml:space="preserve"
       style="font-style:normal;font-variant:normal;font-weight:500;font-stretch:normal;font-size:20.56887817px;line-height:125%;font-family:KacstLetter;-inkscape-font-specification:'KacstLetter Medium';text-align:center;letter-spacing:0px;word-spacing:0px;text-anchor:middle;fill:#e49e00;fill-opacity:1;stroke:none;stroke-width:1px;stroke-linecap:butt;stroke-linejoin:miter;stroke-opacity:1;"
       x="426.72458"
       y="849.15741"
       id="text6437-3-2"
       sodipodi:linespacing="125%"><tspan
         sodipodi:role="line"
         x="426.72458"
         y="849.15741"
         style="font-style:normal;font-variant:normal;font-weight:normal;font-stretch:normal;font-family:Garuda;-inkscape-font-specification:Garuda;text-align:center;text-anchor:middle;fill:#e49e00;fill-opacity:1;"
         id="tspan6607-6">Unknown factor</tspan><tspan
         sodipodi:role="line"
         x="426.72458"
         y="874.86853"
         style="font-style:normal;font-variant:normal;font-weight:normal;font-stretch:normal;font-family:Garuda;-inkscape-font-specification:Garuda;text-align:center;text-anchor:middle;fill:#e49e00;fill-opacity:1;"
         id="tspan6719">in mitochondria</tspan><tspan
         sodipodi:role="line"
         x="426.72458"
         y="900.57959"
         style="font-style:normal;font-variant:normal;font-weight:normal;font-stretch:normal;font-family:Garuda;-inkscape-font-specification:Garuda;text-align:center;text-anchor:middle;fill:#e49e00;fill-opacity:1;"
         id="tspan6721">sensitive to sulfide</tspan></text>
    <text
       xml:space="preserve"
       style="font-style:normal;font-weight:normal;font-size:17.01837349px;line-height:125%;font-family:Sans;letter-spacing:0px;word-spacing:0px;fill:#cc0000;fill-opacity:1;stroke:none"
       x="254.18031"
       y="797.23053"
       id="text3756-0-22-8"
       sodipodi:linespacing="125%"><tspan
         sodipodi:role="line"
         id="tspan3758-4-28-7"
         x="254.18031"
         y="797.23053"
         style="font-weight:bold;font-size:17.01837349px;-inkscape-font-specification:'Sans Bold';fill:#cc0000;fill-opacity:1">H<tspan
   style="font-weight:bold;font-size:17.01837349px;-inkscape-font-specification:'Sans Bold';baseline-shift:sub;fill:#cc0000;fill-opacity:1"
   id="tspan3760-1-3-3">2</tspan>S</tspan></text>
    <g
       id="g6820"
       transform="matrix(1.033765,0,0,1.033765,-29.614774,87.576701)">
      <circle
         r="17.729874"
         cy="570.97296"
         cx="318.34488"
         style="fill:#79ddbd;fill-opacity:1;fill-rule:nonzero;stroke:#000000;stroke-width:1.28460193;stroke-linecap:square;stroke-linejoin:miter;stroke-miterlimit:4;stroke-dasharray:none;stroke-dashoffset:0;stroke-opacity:1"
         id="path6495-8" />
      <text
         xml:space="preserve"
         style="font-style:normal;font-variant:normal;font-weight:bold;font-stretch:normal;font-size:12.3955822px;line-height:125%;font-family:Loma;-inkscape-font-specification:'Loma Bold';letter-spacing:0px;word-spacing:0px;fill:#000000;fill-opacity:1;stroke:none"
         x="302.29056"
         y="575.38831"
         id="text5872-4-3-6-8-4-6"
         sodipodi:linespacing="125%"><tspan
           sodipodi:role="line"
           id="tspan5874-54-7-0-7-0-1"
           x="302.29056"
           y="575.38831">COX1</tspan></text>
    </g>
    <path
       style="fill:none;fill-rule:evenodd;stroke:#000000;stroke-width:1.85598552;stroke-linecap:butt;stroke-linejoin:miter;stroke-miterlimit:4;stroke-dasharray:none;stroke-opacity:1;marker-end:url(#marker5521-3-1)"
       d="m 296.96937,795.50428 c 34.17541,6.71959 56.11587,-10.97092 68.4945,-27.43257"
       id="path5219-0-0"
       inkscape:connector-curvature="0"
       sodipodi:nodetypes="cc" />
    <g
       id="g7842"
       transform="matrix(0.8761126,0.32669071,-0.32669071,0.8761126,295.20293,116.69442)">
      <path
         inkscape:connector-curvature="0"
         id="path7826"
         d="m 199.50893,587.36218 20.84821,0"
         style="fill:none;fill-rule:evenodd;stroke:#000000;stroke-width:1.98500001;stroke-linecap:butt;stroke-linejoin:miter;stroke-miterlimit:4;stroke-dasharray:none;stroke-opacity:1"
         sodipodi:nodetypes="cc" />
      <path
         inkscape:connector-curvature="0"
         id="path7828"
         d="m 210,587.36218 c -0.26719,6.96429 -11.41239,52.1852 14.2862,85.6625"
         style="fill:none;fill-rule:evenodd;stroke:#000000;stroke-width:1.98500001;stroke-linecap:butt;stroke-linejoin:miter;stroke-miterlimit:4;stroke-dasharray:none;stroke-opacity:1"
         sodipodi:nodetypes="cc" />
    </g>
    <rect
       style="fill:#00c8ff;fill-opacity:1;stroke:#000000;stroke-width:1.04383886;stroke-miterlimit:4;stroke-dasharray:none;stroke-opacity:1"
       id="rect5967-80"
       width="7.5449343"
       height="8.5893116"
       x="20.908197"
       y="987.24811"
       rx="3.4385247"
       ry="4.2111697" />
    <rect
       style="fill:#00c8ff;fill-opacity:1;stroke:#000000;stroke-width:1.04383886;stroke-miterlimit:4;stroke-dasharray:none;stroke-opacity:1"
       id="rect5967-80-1"
       width="5.0403671"
       height="6.0847397"
       x="41.696136"
       y="987.99933"
       rx="2.5201836"
       ry="3.0423698" />
    <rect
       style="fill:#00c8ff;fill-opacity:1;stroke:#000000;stroke-width:1.04383886;stroke-miterlimit:4;stroke-dasharray:none;stroke-opacity:1"
       id="rect5967-80-1-0"
       width="8.0458508"
       height="3.9140944"
       x="23.913683"
       y="1003.6113"
       rx="2.5201836"
       ry="1.9570472" />
    <rect
       style="fill:#00c8ff;fill-opacity:1;stroke:#000000;stroke-width:1.04383886;stroke-miterlimit:4;stroke-dasharray:none;stroke-opacity:1"
       id="rect5967-80-1-3"
       width="4.2055082"
       height="4.4150095"
       x="34.933792"
       y="997.09943"
       rx="2.1027541"
       ry="2.2075047" />
    <text
       xml:space="preserve"
       style="font-style:normal;font-weight:normal;font-size:13.57062435px;line-height:125%;font-family:Sans;letter-spacing:0px;word-spacing:0px;fill:#000000;fill-opacity:1;stroke:none"
       x="44.900898"
       y="1020.2335"
       id="text3756-0-22-7-5"
       sodipodi:linespacing="125%"><tspan
         sodipodi:role="line"
         id="tspan3758-4-28-6-9"
         x="44.900898"
         y="1020.2335"
         style="font-weight:bold;font-size:13.57062435px;-inkscape-font-specification:'Sans Bold';fill:#000000;fill-opacity:1">Degradation</tspan></text>
    <ellipse
       style="fill:#bcd9ff;fill-opacity:0.62944162;fill-rule:nonzero;stroke:#a7a7a7;stroke-width:3.40186429;stroke-miterlimit:4;stroke-dasharray:none;stroke-opacity:1"
       id="path3755-4-3-0"
       cx="86.605598"
       cy="888.82568"
       rx="54.887791"
       ry="27.958515" />
    <g
       id="g10818"
       transform="matrix(0.93504014,0,0,0.93504014,-14.127988,63.026998)">
      <path
         sodipodi:nodetypes="cc"
         inkscape:connector-curvature="0"
         id="path5219"
         d="m 93.250864,939.03673 c 11.404336,-8.10697 12.120196,-28.7038 12.987426,-44.65856"
         style="fill:none;fill-rule:evenodd;stroke:#000000;stroke-width:1.98492599;stroke-linecap:butt;stroke-linejoin:miter;stroke-miterlimit:4;stroke-dasharray:none;stroke-opacity:1;marker-end:url(#marker5521)" />
      <path
         sodipodi:nodetypes="cc"
         inkscape:connector-curvature="0"
         id="path5221"
         d="m 114.3856,928.96554 c -5.2708,-5.79581 -10.12914,-10.21596 -8.7114,-25.10258"
         style="fill:none;fill-rule:evenodd;stroke:#000000;stroke-width:1.98492599;stroke-linecap:butt;stroke-linejoin:miter;stroke-miterlimit:4;stroke-dasharray:none;stroke-opacity:1" />
    </g>
    <text
       xml:space="preserve"
       style="font-style:normal;font-weight:normal;font-size:13.57062435px;line-height:125%;font-family:Sans;letter-spacing:0px;word-spacing:0px;fill:#000000;fill-opacity:1;stroke:none"
       x="37.426014"
       y="891.14282"
       id="text3756-0-22-7-5-4"
       sodipodi:linespacing="125%"><tspan
         sodipodi:role="line"
         id="tspan3758-4-28-6-9-8"
         x="37.426014"
         y="891.14282"
         style="font-weight:bold;font-size:13.57062435px;-inkscape-font-specification:'Sans Bold';fill:#000000;fill-opacity:1">Transcription</tspan></text>
    <text
       xml:space="preserve"
       style="font-style:normal;font-weight:normal;font-size:48.07291412px;line-height:125%;font-family:sans-serif;letter-spacing:0px;word-spacing:0px;fill:#000000;fill-opacity:1;stroke:none;stroke-width:1px;stroke-linecap:butt;stroke-linejoin:miter;stroke-opacity:1"
       x="3.365716"
       y="630.24774"
       id="text9116"
       sodipodi:linespacing="125%"><tspan
         sodipodi:role="line"
         id="tspan9118"
         x="3.365716"
         y="630.24774"
         style="font-size:43.66175842px">A</tspan></text>
    <text
       xml:space="preserve"
       style="font-style:normal;font-weight:normal;font-size:48.07291412px;line-height:125%;font-family:sans-serif;letter-spacing:0px;word-spacing:0px;fill:#000000;fill-opacity:1;stroke:none;stroke-width:1px;stroke-linecap:butt;stroke-linejoin:miter;stroke-opacity:1"
       x="251.76633"
       y="630.24774"
       id="text9120"
       sodipodi:linespacing="125%"><tspan
         sodipodi:role="line"
         id="tspan9122"
         x="251.76633"
         y="630.24774"
         style="font-size:43.66175842px">B</tspan></text>
    <text
       xml:space="preserve"
       style="font-style:normal;font-weight:normal;font-size:48.07291412px;line-height:125%;font-family:sans-serif;letter-spacing:0px;word-spacing:0px;fill:#000000;fill-opacity:1;stroke:none;stroke-width:1px;stroke-linecap:butt;stroke-linejoin:miter;stroke-opacity:1"
       x="511.53918"
       y="629.62946"
       id="text9124"
       sodipodi:linespacing="125%"><tspan
         sodipodi:role="line"
         id="tspan9126"
         x="511.53918"
         y="629.62946"
         style="font-size:43.66175842px">C</tspan></text>
    <g
       id="g10791"
       transform="matrix(0.67337318,0.50487867,-0.50487867,0.67337318,644.7233,-51.221399)">
      <path
         inkscape:connector-curvature="0"
         id="path10531"
         d="m 612.6835,863.29996 34.45643,6.99895"
         style="fill:none;fill-rule:evenodd;stroke:#000000;stroke-width:2.5;stroke-linecap:butt;stroke-linejoin:miter;stroke-miterlimit:4;stroke-dasharray:none;stroke-opacity:1" />
      <path
         inkscape:connector-curvature="0"
         id="path10533"
         d="M 659.21091,835.76521 647.9475,871.37568"
         style="fill:none;fill-rule:evenodd;stroke:#000000;stroke-width:2.5;stroke-linecap:butt;stroke-linejoin:miter;stroke-miterlimit:4;stroke-dasharray:none;stroke-opacity:1"
         sodipodi:nodetypes="cc" />
      <path
         inkscape:connector-curvature="0"
         id="path10535"
         d="M 684.82664,891.56499 648.21669,871.64487"
         style="fill:none;fill-rule:evenodd;stroke:#000000;stroke-width:2.5;stroke-linecap:butt;stroke-linejoin:miter;stroke-miterlimit:4;stroke-dasharray:none;stroke-opacity:1" />
      <path
         inkscape:connector-curvature="0"
         id="path10537"
         d="m 656.29242,913.10026 -8.07573,-41.99377"
         style="fill:none;fill-rule:evenodd;stroke:#000000;stroke-width:2.5;stroke-linecap:butt;stroke-linejoin:miter;stroke-miterlimit:4;stroke-dasharray:none;stroke-opacity:1" />
      <path
         inkscape:connector-curvature="0"
         id="path10539"
         d="m 612.14512,899.10234 34.72562,-27.72666"
         style="fill:none;fill-rule:evenodd;stroke:#000000;stroke-width:2;stroke-linecap:butt;stroke-linejoin:miter;stroke-miterlimit:4;stroke-dasharray:none;stroke-opacity:1" />
      <circle
         r="8.8872337"
         cy="870.29889"
         cx="647.40906"
         id="path10490"
         style="fill:#ffce62;fill-opacity:1;stroke:#000000;stroke-width:0.94990849;stroke-linecap:round;stroke-miterlimit:4;stroke-dasharray:none;stroke-dashoffset:0;stroke-opacity:1" />
      <path
         inkscape:connector-curvature="0"
         id="path10535-7"
         d="M 655.2999,913.4958 612.26138,898.93282"
         style="fill:none;fill-rule:evenodd;stroke:#000000;stroke-width:2.5;stroke-linecap:butt;stroke-linejoin:miter;stroke-miterlimit:4;stroke-dasharray:none;stroke-opacity:1"
         sodipodi:nodetypes="cc" />
      <circle
         r="8.8872337"
         cy="909.61407"
         cx="655.57544"
         id="path10490-4"
         style="fill:#8f98e8;fill-opacity:1;stroke:#000000;stroke-width:0.94990849;stroke-linecap:round;stroke-miterlimit:4;stroke-dasharray:none;stroke-dashoffset:0;stroke-opacity:1" />
      <circle
         r="8.8872337"
         cy="890.21906"
         cx="684.28827"
         id="path10490-6"
         style="fill:#8f98e8;fill-opacity:1;stroke:#000000;stroke-width:0.94990849;stroke-linecap:round;stroke-miterlimit:4;stroke-dasharray:none;stroke-dashoffset:0;stroke-opacity:1" />
      <path
         inkscape:connector-curvature="0"
         id="path10535-3"
         d="M 697.08561,854.56723 660.47566,834.64711"
         style="fill:none;fill-rule:evenodd;stroke:#000000;stroke-width:2.5;stroke-linecap:butt;stroke-linejoin:miter;stroke-miterlimit:4;stroke-dasharray:none;stroke-opacity:1" />
      <circle
         r="8.8872337"
         cy="834.69379"
         cx="659.39215"
         id="path10490-9"
         style="fill:#8f98e8;fill-opacity:1;stroke:#000000;stroke-width:0.94990849;stroke-linecap:round;stroke-miterlimit:4;stroke-dasharray:none;stroke-dashoffset:0;stroke-opacity:1" />
      <circle
         r="8.8872337"
         cy="862.94281"
         cx="609.45856"
         id="path10490-2"
         style="fill:#8f98e8;fill-opacity:1;stroke:#000000;stroke-width:0.94990849;stroke-linecap:round;stroke-miterlimit:4;stroke-dasharray:none;stroke-dashoffset:0;stroke-opacity:1" />
      <circle
         r="8.8872337"
         cy="897.22607"
         cx="615.00488"
         id="path10490-90"
         style="fill:#8f98e8;fill-opacity:1;stroke:#000000;stroke-width:0.94990849;stroke-linecap:round;stroke-miterlimit:4;stroke-dasharray:none;stroke-dashoffset:0;stroke-opacity:1" />
      <circle
         r="8.8872337"
         cy="853.89288"
         cx="697.88776"
         id="path10490-9-6"
         style="fill:#8fe8d9;fill-opacity:1;stroke:#000000;stroke-width:0.94990849;stroke-linecap:round;stroke-miterlimit:4;stroke-dasharray:none;stroke-dashoffset:0;stroke-opacity:1" />
    </g>
    <text
       xml:space="preserve"
       style="font-style:normal;font-variant:normal;font-weight:500;font-stretch:normal;font-size:18.51396179px;line-height:125%;font-family:KacstLetter;-inkscape-font-specification:'KacstLetter Medium';text-align:center;letter-spacing:0px;word-spacing:0px;text-anchor:middle;fill:#000000;fill-opacity:1;stroke:none;stroke-width:1px;stroke-linecap:butt;stroke-linejoin:miter;stroke-opacity:1"
       x="637.80725"
       y="803.04321"
       id="text6437-3-3"
       sodipodi:linespacing="125%"><tspan
         sodipodi:role="line"
         x="637.80725"
         y="803.04321"
         style="font-style:normal;font-variant:normal;font-weight:normal;font-stretch:normal;font-family:Garuda;-inkscape-font-specification:Garuda;text-align:center;text-anchor:middle;fill:#000000;fill-opacity:1"
         id="tspan6607-3">Analyze</tspan><tspan
         sodipodi:role="line"
         x="637.80725"
         y="826.18567"
         style="font-style:normal;font-variant:normal;font-weight:normal;font-stretch:normal;font-family:Garuda;-inkscape-font-specification:Garuda;text-align:center;text-anchor:middle;fill:#000000;fill-opacity:1"
         id="tspan10608">protein network</tspan></text>
    <text
       xml:space="preserve"
       style="font-style:normal;font-variant:normal;font-weight:500;font-stretch:normal;font-size:18.51396179px;line-height:125%;font-family:KacstLetter;-inkscape-font-specification:'KacstLetter Medium';text-align:center;letter-spacing:0px;word-spacing:0px;text-anchor:middle;fill:#000000;fill-opacity:1;stroke:none;stroke-width:1px;stroke-linecap:butt;stroke-linejoin:miter;stroke-opacity:1"
       x="638.52441"
       y="953.203"
       id="text6437-3-3-7"
       sodipodi:linespacing="125%"><tspan
         sodipodi:role="line"
         x="638.52441"
         y="953.203"
         style="font-style:normal;font-variant:normal;font-weight:normal;font-stretch:normal;font-family:Garuda;-inkscape-font-specification:Garuda;text-align:center;text-anchor:middle;fill:#000000;fill-opacity:1"
         id="tspan6607-3-9">Analyze</tspan><tspan
         sodipodi:role="line"
         x="638.52441"
         y="976.34546"
         style="font-style:normal;font-variant:normal;font-weight:normal;font-stretch:normal;font-family:Garuda;-inkscape-font-specification:Garuda;text-align:center;text-anchor:middle;fill:#000000;fill-opacity:1"
         id="tspan10608-4">mutations</tspan></text>
    <g
       id="g10761"
       transform="matrix(0.84162575,0,0,0.84162575,90.928488,183.94504)">
      <text
         sodipodi:linespacing="125%"
         id="text10631-9"
         y="978.50397"
         x="612.09637"
         style="font-style:normal;font-weight:normal;font-size:33.73670578px;line-height:125%;font-family:sans-serif;letter-spacing:0px;word-spacing:0px;fill:#000000;fill-opacity:1;stroke:none;stroke-width:1px;stroke-linecap:butt;stroke-linejoin:miter;stroke-opacity:1"
         xml:space="preserve"><tspan
           style="font-style:normal;font-variant:normal;font-weight:bold;font-stretch:normal;font-family:FreeMono;-inkscape-font-specification:'FreeMono Bold'"
           y="978.50397"
           x="612.09637"
           id="tspan10633-3"
           sodipodi:role="line">ATCG</tspan></text>
      <text
         sodipodi:linespacing="125%"
         id="text10631-8"
         y="1005.9822"
         x="612.09637"
         style="font-style:normal;font-weight:normal;font-size:33.73670578px;line-height:125%;font-family:sans-serif;letter-spacing:0px;word-spacing:0px;fill:#000000;fill-opacity:1;stroke:none;stroke-width:1px;stroke-linecap:butt;stroke-linejoin:miter;stroke-opacity:1"
         xml:space="preserve"><tspan
           style="font-style:normal;font-variant:normal;font-weight:bold;font-stretch:normal;font-family:FreeMono;-inkscape-font-specification:'FreeMono Bold'"
           y="1005.9822"
           x="612.09637"
           id="tspan10633-8"
           sodipodi:role="line">AT<tspan
   id="tspan10671"
   style="fill:#ff1111;fill-opacity:1">T</tspan>G</tspan></text>
    </g>
    <text
       xml:space="preserve"
       style="font-style:normal;font-weight:normal;font-size:25px;line-height:125%;font-family:sans-serif;letter-spacing:0px;word-spacing:0px;fill:#000000;fill-opacity:1;stroke:none;stroke-width:1px;stroke-linecap:butt;stroke-linejoin:miter;stroke-opacity:1"
       x="702.5"
       y="992.36218"
       id="text10661"
       sodipodi:linespacing="125%"><tspan
         sodipodi:role="line"
         id="tspan10663"
         x="702.5"
         y="992.36218" /></text>
    <path
       style="fill:none;fill-rule:evenodd;stroke:#000000;stroke-width:1.85598552;stroke-linecap:butt;stroke-linejoin:miter;stroke-miterlimit:4;stroke-dasharray:none;stroke-opacity:1;marker-end:url(#marker5521-3-1-3)"
       d="m 282.8578,779.26633 c 6.76618,-36.74554 36.76411,-67.56083 104.06841,-68.74894"
       id="path5219-0-0-7"
       inkscape:connector-curvature="0"
       sodipodi:nodetypes="cc" />
    <text
       xml:space="preserve"
       style="font-style:normal;font-weight:normal;font-size:17.01837349px;line-height:125%;font-family:Sans;letter-spacing:0px;word-spacing:0px;fill:#cc0000;fill-opacity:1;stroke:none"
       x="432.90262"
       y="719.40192"
       id="text3756-0-22-8-5"
       sodipodi:linespacing="125%"><tspan
         sodipodi:role="line"
         id="tspan3758-4-28-7-3"
         x="432.90262"
         y="719.40192"
         style="font-weight:bold;font-size:17.01837349px;-inkscape-font-specification:'Sans Bold';fill:#cc0000;fill-opacity:1">SO<tspan
   style="font-weight:bold;font-size:17.01837349px;-inkscape-font-specification:'Sans Bold';baseline-shift:sub;fill:#cc0000;fill-opacity:1"
   id="tspan3760-1-3-3-5">4</tspan></tspan></text>
    <path
       style="fill:none;fill-rule:evenodd;stroke:#000000;stroke-width:1.85598552;stroke-linecap:butt;stroke-linejoin:miter;stroke-miterlimit:4;stroke-dasharray:none;stroke-opacity:1;marker-end:url(#marker5521-3-1-3-6)"
       d="m 403.903,713.10784 21.51824,-0.0615"
       id="path5219-0-0-7-9"
       inkscape:connector-curvature="0"
       sodipodi:nodetypes="cc" />
    <path
       style="fill:none;fill-rule:evenodd;stroke:#000000;stroke-width:1.85598552;stroke-linecap:butt;stroke-linejoin:miter;stroke-miterlimit:4;stroke-dasharray:none;stroke-opacity:1;marker-end:url(#marker5521-3-1-3-6-3)"
       d="m 391.72882,705.55794 21.51825,-0.0615"
       id="path5219-0-0-7-9-7"
       inkscape:connector-curvature="0"
       sodipodi:nodetypes="cc" />
    <text
       xml:space="preserve"
       style="font-style:normal;font-weight:normal;font-size:17.01837349px;line-height:125%;font-family:Sans;letter-spacing:0px;word-spacing:0px;fill:#cc0000;fill-opacity:1;stroke:none"
       x="333.84927"
       y="690.3576"
       id="text3756-0-22-6"
       sodipodi:linespacing="125%"><tspan
         sodipodi:role="line"
         id="tspan3758-4-28-2"
         x="333.84927"
         y="690.3576"
         style="font-weight:bold;font-size:17.01837349px;-inkscape-font-specification:'Sans Bold';fill:#cc0000;fill-opacity:1">O<tspan
   style="font-weight:bold;font-size:17.01837349px;-inkscape-font-specification:'Sans Bold';baseline-shift:sub;fill:#cc0000;fill-opacity:1"
   id="tspan3760-1-3-9">2</tspan></tspan></text>
    <path
       sodipodi:nodetypes="cc"
       style="fill:none;fill-rule:evenodd;stroke:#000000;stroke-width:1.85605478;stroke-linecap:butt;stroke-linejoin:miter;stroke-miterlimit:4;stroke-dasharray:none;stroke-opacity:1"
       d="m 343.69833,695.3605 c 6.93607,15.22342 24.19396,16.4894 35.7721,15.72503"
       id="path7828-6"
       inkscape:connector-curvature="0" />
    <g
       id="g4360"
       transform="matrix(1.2992455,0,0,1.2992455,-74.643458,-386.33702)">
      <path
         sodipodi:nodetypes="cc"
         inkscape:connector-curvature="0"
         id="path4354"
         d="m 525,827.36224 c 4.0639,-2.8681 8.29188,-3.90294 15,0"
         style="fill:none;fill-rule:evenodd;stroke:#000000;stroke-width:1px;stroke-linecap:butt;stroke-linejoin:miter;stroke-opacity:1" />
      <path
         sodipodi:nodetypes="ccsccccccscc"
         transform="translate(0,584.6457)"
         inkscape:connector-curvature="0"
         id="path4358"
         d="m 531.79223,283.67936 c -0.4729,-0.27678 -1.1486,-0.94885 -1.2937,-1.28678 -0.0474,-0.1104 -1.1916,-4.63013 -2.54266,-10.04385 l -2.45646,-9.84313 0,-2.14348 0,-2.14348 c 4.49839,-3.84289 9.13262,-4.07241 13.92857,0 l 0,2.27708 0,2.27709 -2.46736,9.86919 c -2.45496,9.81955 -2.46908,9.87135 -2.80788,10.29685 -0.76945,0.96639 -1.55402,1.21252 -2.36051,0.74051 z"
         style="fill:#e0bf66;fill-opacity:0.52791874;stroke:#d7ae3e;stroke-width:2;stroke-linecap:round;stroke-miterlimit:4;stroke-dasharray:none;stroke-dashoffset:0;stroke-opacity:0.50253811" />
      <path
         sodipodi:nodetypes="ccccccc"
         inkscape:connector-curvature="0"
         id="path4352"
         d="m 535,867.36224 c -1.50375,2.28087 -3.15961,2.43217 -5,0 l -5,-20 0,-20 c 4.71605,2.69755 9.61385,3.66847 15,0 l 0,20 z"
         style="fill:none;fill-rule:evenodd;stroke:#000000;stroke-width:1px;stroke-linecap:butt;stroke-linejoin:miter;stroke-opacity:1" />
      <path
         sodipodi:nodetypes="cc"
         inkscape:connector-curvature="0"
         id="path4356"
         d="m 525.80357,842.58545 c 4.63676,3.68828 7.91591,4.22987 13.32589,0.067"
         style="fill:none;fill-rule:evenodd;stroke:#e0bf66;stroke-width:1px;stroke-linecap:butt;stroke-linejoin:miter;stroke-opacity:0.5076142" />
    </g>
    <text
       xml:space="preserve"
       style="font-style:normal;font-weight:normal;font-size:15.31816673px;line-height:125%;font-family:Sans;letter-spacing:0px;word-spacing:0px;fill:#cc0000;fill-opacity:1;stroke:none"
       x="536.94946"
       y="690.58862"
       id="text3756-0-22-8-3"
       sodipodi:linespacing="125%"><tspan
         sodipodi:role="line"
         id="tspan3758-4-28-7-6"
         x="536.94946"
         y="690.58862"
         style="font-weight:bold;font-size:15.31816673px;-inkscape-font-specification:'Sans Bold';fill:#cc0000;fill-opacity:1">H<tspan
   style="font-weight:bold;font-size:15.31816673px;-inkscape-font-specification:'Sans Bold';baseline-shift:sub;fill:#cc0000;fill-opacity:1"
   id="tspan3760-1-3-3-7">2</tspan>S</tspan></text>
    <text
       xml:space="preserve"
       style="font-style:normal;font-variant:normal;font-weight:500;font-stretch:normal;font-size:18.51396179px;line-height:125%;font-family:KacstLetter;-inkscape-font-specification:'KacstLetter Medium';text-align:center;letter-spacing:0px;word-spacing:0px;text-anchor:middle;fill:#000000;fill-opacity:1;stroke:none;stroke-width:1px;stroke-linecap:butt;stroke-linejoin:miter;stroke-opacity:1"
       x="640.91034"
       y="648.04956"
       id="text6437-3-3-5"
       sodipodi:linespacing="125%"><tspan
         sodipodi:role="line"
         x="640.91034"
         y="648.04956"
         style="font-style:normal;font-variant:normal;font-weight:normal;font-stretch:normal;font-family:Garuda;-inkscape-font-specification:Garuda;text-align:center;text-anchor:middle;fill:#000000;fill-opacity:1"
         id="tspan4410">Sequence</tspan><tspan
         sodipodi:role="line"
         x="640.91034"
         y="671.19202"
         style="font-style:normal;font-variant:normal;font-weight:normal;font-stretch:normal;font-family:Garuda;-inkscape-font-specification:Garuda;text-align:center;text-anchor:middle;fill:#000000;fill-opacity:1"
         id="tspan4741">proteomes</tspan></text>
    <g
       id="g4434"
       transform="matrix(0.9474394,0,0,0.9474394,60.8477,-104.45179)">
      <path
         inkscape:connector-curvature="0"
         id="path4416"
         d="m 645,882.36224 0,-10"
         style="fill:none;fill-rule:evenodd;stroke:#000cad;stroke-width:1px;stroke-linecap:butt;stroke-linejoin:miter;stroke-opacity:1" />
      <path
         inkscape:connector-curvature="0"
         id="path4418"
         d="m 655,882.36224 0,-40"
         style="fill:none;fill-rule:evenodd;stroke:#000cad;stroke-width:1px;stroke-linecap:butt;stroke-linejoin:miter;stroke-opacity:1" />
      <path
         inkscape:connector-curvature="0"
         id="path4420"
         d="m 665,882.36224 0,-15"
         style="fill:none;fill-rule:evenodd;stroke:#000cad;stroke-width:1px;stroke-linecap:butt;stroke-linejoin:miter;stroke-opacity:1" />
      <path
         inkscape:connector-curvature="0"
         id="path4422"
         d="m 675,882.36224 0,-10"
         style="fill:none;fill-rule:evenodd;stroke:#000cad;stroke-width:1px;stroke-linecap:butt;stroke-linejoin:miter;stroke-opacity:1" />
      <path
         inkscape:connector-curvature="0"
         id="path4424"
         d="m 700,882.36224 0,-5"
         style="fill:none;fill-rule:evenodd;stroke:#000cad;stroke-width:1px;stroke-linecap:butt;stroke-linejoin:miter;stroke-opacity:1" />
      <path
         inkscape:connector-curvature="0"
         id="path4426"
         d="m 647,882.36224 0,-4"
         style="fill:none;fill-rule:evenodd;stroke:#000cad;stroke-width:1px;stroke-linecap:butt;stroke-linejoin:miter;stroke-opacity:1" />
      <path
         inkscape:connector-curvature="0"
         id="path4428"
         d="m 657,882.36224 0,-8"
         style="fill:none;fill-rule:evenodd;stroke:#000cad;stroke-width:1px;stroke-linecap:butt;stroke-linejoin:miter;stroke-opacity:1" />
      <path
         inkscape:connector-curvature="0"
         id="path4430"
         d="m 667,881.36224 0,-2"
         style="fill:none;fill-rule:evenodd;stroke:#000cad;stroke-width:1px;stroke-linecap:butt;stroke-linejoin:miter;stroke-opacity:1" />
      <path
         inkscape:connector-curvature="0"
         id="path4432"
         d="m 659,882.36224 0,-3"
         style="fill:none;fill-rule:evenodd;stroke:#000cad;stroke-width:1px;stroke-linecap:butt;stroke-linejoin:miter;stroke-opacity:1" />
      <path
         inkscape:connector-curvature="0"
         id="path4414"
         d="m 637.14286,839.68367 0,42.67857 72.85714,0"
         style="fill:none;fill-rule:evenodd;stroke:#000000;stroke-width:2;stroke-linecap:butt;stroke-linejoin:miter;stroke-miterlimit:4;stroke-dasharray:none;stroke-opacity:1"
         sodipodi:nodetypes="ccc" />
    </g>
    <path
       style="fill:none;fill-rule:evenodd;stroke:#000000;stroke-width:1.67056489;stroke-linecap:butt;stroke-linejoin:miter;stroke-miterlimit:4;stroke-dasharray:none;stroke-opacity:1;marker-end:url(#marker5521-3-1-3-6-3-6)"
       d="m 557.30631,734.51665 c 0.20457,-26.02543 30.28262,-23.07578 41.08676,-23.16254"
       id="path5219-0-0-7-9-7-9"
       inkscape:connector-curvature="0"
       sodipodi:nodetypes="cc" />
    <path
       style="fill:none;fill-rule:evenodd;stroke:#000000;stroke-width:1.67056489;stroke-linecap:butt;stroke-linejoin:miter;stroke-miterlimit:4;stroke-dasharray:none;stroke-opacity:1;marker-end:url(#marker5521-3-1-3-6-3-6-1)"
       d="m 634.39155,711.40941 19.36847,-0.0553"
       id="path5219-0-0-7-9-7-9-7"
       inkscape:connector-curvature="0"
       sodipodi:nodetypes="cc" />
    <g
       id="g5164"
       transform="matrix(0.91545665,-0.40241659,0.40241659,0.91545665,-252.92992,291.75051)"
       style="stroke:#b35536;stroke-opacity:1">
      <g
         inkscape:transform-center-y="-6.7700551"
         inkscape:transform-center-x="0.46323872"
         transform="matrix(0.5851253,-0.8109429,0.8109429,0.5851253,-371.52434,762.45721)"
         id="g5119"
         style="stroke:#b35536;stroke-opacity:1">
        <circle
           style="fill:#edcec4;fill-opacity:0.60784314;stroke:#b35536;stroke-width:0.64499193;stroke-miterlimit:4;stroke-dasharray:none;stroke-dashoffset:0;stroke-opacity:1"
           id="path4136-3-5-5-9-37-1"
           cx="586.9151"
           cy="715.90106"
           r="7.1233349"
           transform="matrix(0.99918738,0.04030607,-0.04030607,0.99918738,0,0)" />
        <g
           id="g6208-4-8"
           transform="matrix(-0.19957977,0.28854425,-0.28854425,-0.19957977,716.18361,816.58633)"
           style="fill:#edcec4;fill-opacity:0.60784314;stroke:#b35536;stroke-opacity:1">
          <ellipse
             ry="12.321428"
             rx="5.5357141"
             cy="499.78824"
             cx="45.236767"
             id="path6204-5-7"
             style="fill:#edcec4;fill-opacity:0.60784314;stroke:#b35536;stroke-width:2;stroke-linecap:round;stroke-miterlimit:4;stroke-dasharray:none;stroke-dashoffset:0;stroke-opacity:1" />
          <path
             sodipodi:nodetypes="ccccc"
             inkscape:connector-curvature="0"
             id="path6206-2-9"
             d="m 47.418474,487.37126 17.803938,4.9245 c 2.469675,5.10797 2.369757,9.66531 0.126269,13.76332 L 47.165935,512.12 c 3.951724,-8.22771 4.065944,-16.51868 0.252539,-24.74874 z"
             style="fill:#edcec4;fill-opacity:0.60784314;fill-rule:evenodd;stroke:#b35536;stroke-width:1px;stroke-linecap:butt;stroke-linejoin:miter;stroke-opacity:1" />
        </g>
        <path
           style="fill:none;fill-rule:evenodd;stroke:#b35536;stroke-width:0.89173973;stroke-linecap:round;stroke-linejoin:miter;stroke-miterlimit:4;stroke-dasharray:none;stroke-opacity:1"
           d="m 558.54324,735.35408 c 1.84131,0.009 3.59795,-0.33322 4.54196,-4.04312 0.8449,-1.92029 2.26639,-3.39042 4.52146,-4.20973 1.98056,-1.01753 2.93716,-2.78757 3.49006,-4.89451"
           id="path6212-5-2"
           inkscape:connector-curvature="0"
           sodipodi:nodetypes="cccc" />
      </g>
      <g
         inkscape:transform-center-y="-1.4808408"
         inkscape:transform-center-x="-5.8810789"
         transform="matrix(0.94902297,-0.31520692,0.31520692,0.94902297,-209.86874,218.08863)"
         id="g5112"
         style="stroke:#b35536;stroke-opacity:1">
        <circle
           style="fill:#edcec4;fill-opacity:0.60784314;stroke:#b35536;stroke-width:0.64499193;stroke-miterlimit:4;stroke-dasharray:none;stroke-dashoffset:0;stroke-opacity:1"
           id="path4136-3-5-5-9-37-1-6"
           cx="930.72516"
           cy="107.05762"
           r="7.1233349"
           transform="matrix(0.69120779,0.72265606,-0.72265606,0.69120779,0,0)" />
        <g
           id="g6208-4-8-7"
           transform="matrix(-0.34396224,0.06913645,-0.06913645,-0.34396224,626.23707,912.55741)"
           style="fill:#edcec4;fill-opacity:0.60784314;stroke:#b35536;stroke-opacity:1">
          <ellipse
             ry="12.321428"
             rx="5.5357141"
             cy="499.78824"
             cx="45.236767"
             id="path6204-5-7-5"
             style="fill:#edcec4;fill-opacity:0.60784314;stroke:#b35536;stroke-width:2;stroke-linecap:round;stroke-miterlimit:4;stroke-dasharray:none;stroke-dashoffset:0;stroke-opacity:1" />
          <path
             sodipodi:nodetypes="ccccc"
             inkscape:connector-curvature="0"
             id="path6206-2-9-3"
             d="m 47.418474,487.37126 17.803938,4.9245 c 2.469675,5.10797 2.369757,9.66531 0.126269,13.76332 L 47.165935,512.12 c 3.951724,-8.22771 4.065944,-16.51868 0.252539,-24.74874 z"
             style="fill:#edcec4;fill-opacity:0.60784314;fill-rule:evenodd;stroke:#b35536;stroke-width:1px;stroke-linecap:butt;stroke-linejoin:miter;stroke-opacity:1" />
        </g>
        <path
           style="fill:none;fill-rule:evenodd;stroke:#b35536;stroke-width:0.89173973;stroke-linecap:round;stroke-linejoin:miter;stroke-miterlimit:4;stroke-dasharray:none;stroke-opacity:1"
           d="m 569.26782,745.72836 c 1.0486,-1.51358 2.33613,-2.7566 5.91683,-1.40266 2.0577,0.40893 4.07722,0.0874 6.04155,-1.29033 1.96932,-1.03914 3.96797,-0.80787 6.01115,-0.0527"
           id="path6212-5-2-5"
           inkscape:connector-curvature="0"
           sodipodi:nodetypes="cccc" />
      </g>
      <g
         transform="translate(3.5714286,0.17857143)"
         id="g5126"
         style="stroke:#b35536;stroke-opacity:1">
        <circle
           style="fill:#edcec4;fill-opacity:0.60784314;stroke:#b35536;stroke-width:0.64499193;stroke-miterlimit:4;stroke-dasharray:none;stroke-dashoffset:0;stroke-opacity:1"
           id="path4136-3-5-5-9-37-1-2-2"
           cx="-920.61914"
           cy="84.249931"
           r="7.1233349"
           transform="matrix(-0.51079629,-0.85970178,0.85970178,-0.51079629,0,0)" />
        <g
           id="g6208-4-8-9-9"
           transform="matrix(0.35069726,0.0100647,-0.0100647,0.35069726,521.30627,573.14987)"
           style="fill:#edcec4;fill-opacity:0.60784314;stroke:#b35536;stroke-opacity:1">
          <ellipse
             ry="12.321428"
             rx="5.5357141"
             cy="499.78824"
             cx="45.236767"
             id="path6204-5-7-3-1"
             style="fill:#edcec4;fill-opacity:0.60784314;stroke:#b35536;stroke-width:2;stroke-linecap:round;stroke-miterlimit:4;stroke-dasharray:none;stroke-dashoffset:0;stroke-opacity:1" />
          <path
             sodipodi:nodetypes="ccccc"
             inkscape:connector-curvature="0"
             id="path6206-2-9-1-2"
             d="m 47.418474,487.37126 17.803938,4.9245 c 2.469675,5.10797 2.369757,9.66531 0.126269,13.76332 L 47.165935,512.12 c 3.951724,-8.22771 4.065944,-16.51868 0.252539,-24.74874 z"
             style="fill:#edcec4;fill-opacity:0.60784314;fill-rule:evenodd;stroke:#b35536;stroke-width:1px;stroke-linecap:butt;stroke-linejoin:miter;stroke-opacity:1" />
        </g>
        <path
           style="fill:none;fill-rule:evenodd;stroke:#b35536;stroke-width:0.89173973;stroke-linecap:round;stroke-linejoin:miter;stroke-miterlimit:4;stroke-dasharray:none;stroke-opacity:1"
           d="m 539.25976,748.52118 c -1.3624,1.2387 -3.83501,3.24845 -7.01904,1.12324 -1.91284,-0.86163 -3.3697,-2.06348 -5.65149,-2.80514 -2.18625,-0.71047 -3.74773,0.1942 -5.53094,2.07618"
           id="path6212-5-2-9-7"
           inkscape:connector-curvature="0"
           sodipodi:nodetypes="ccsc" />
      </g>
      <g
         id="g5133"
         style="stroke:#b35536;stroke-opacity:1">
        <circle
           style="fill:#edcec4;fill-opacity:0.60784314;stroke:#b35536;stroke-width:0.64499193;stroke-miterlimit:4;stroke-dasharray:none;stroke-dashoffset:0;stroke-opacity:1"
           id="path4136-3-5-5-9-37-1-2-2-9"
           cx="-760.43146"
           cy="-546.05377"
           r="7.1233349"
           transform="matrix(-0.94888394,-0.3156252,0.3156252,-0.94888394,0,0)" />
        <g
           id="g6208-4-8-9-9-3"
           transform="matrix(0.27172536,-0.22193513,0.22193513,0.27172536,418.33166,639.63)"
           style="fill:#edcec4;fill-opacity:0.60784314;stroke:#b35536;stroke-opacity:1">
          <ellipse
             ry="12.321428"
             rx="5.5357141"
             cy="499.78824"
             cx="45.236767"
             id="path6204-5-7-3-1-6"
             style="fill:#edcec4;fill-opacity:0.60784314;stroke:#b35536;stroke-width:2;stroke-linecap:round;stroke-miterlimit:4;stroke-dasharray:none;stroke-dashoffset:0;stroke-opacity:1" />
          <path
             sodipodi:nodetypes="ccccc"
             inkscape:connector-curvature="0"
             id="path6206-2-9-1-2-0"
             d="m 47.418474,487.37126 17.803938,4.9245 c 2.469675,5.10797 2.369757,9.66531 0.126269,13.76332 L 47.165935,512.12 c 3.951724,-8.22771 4.065944,-16.51868 0.252539,-24.74874 z"
             style="fill:#edcec4;fill-opacity:0.60784314;fill-rule:evenodd;stroke:#b35536;stroke-width:1px;stroke-linecap:butt;stroke-linejoin:miter;stroke-opacity:1" />
        </g>
        <path
           style="fill:none;fill-rule:evenodd;stroke:#b35536;stroke-width:0.89173973;stroke-linecap:round;stroke-linejoin:miter;stroke-miterlimit:4;stroke-dasharray:none;stroke-opacity:1"
           d="m 546.69206,760.46474 c -0.21924,1.82823 -0.77619,3.529 -4.57444,4.00634 -2.01013,0.60061 -3.64497,1.82911 -4.73722,3.96536 -1.25495,1.83932 -3.12982,2.56937 -5.28901,2.85711"
           id="path6212-5-2-9-7-6"
           inkscape:connector-curvature="0"
           sodipodi:nodetypes="cccc" />
      </g>
      <g
         style="stroke:#b35536;stroke-opacity:1"
         id="g5105">
        <circle
           style="fill:#eccec4;fill-opacity:0.60913708;stroke:#b35536;stroke-width:0.64499193;stroke-miterlimit:4;stroke-dasharray:none;stroke-dashoffset:0;stroke-opacity:1"
           id="path4136-3-5-5-9-37-1-2-2-6"
           cx="525.16522"
           cy="-781.48029"
           r="7.1233349"
           transform="matrix(-0.33471572,0.94231915,-0.94231915,-0.33471572,0,0)" />
        <g
           id="g6208-4-8-9-9-1"
           transform="matrix(-0.21640467,-0.27615013,0.27615013,-0.21640467,439.48189,884.90891)"
           style="fill:#edcec4;fill-opacity:0.60784314;stroke:#b35536;stroke-opacity:1">
          <ellipse
             ry="12.321428"
             rx="5.5357141"
             cy="499.78824"
             cx="45.236767"
             id="path6204-5-7-3-1-8"
             style="fill:#edcec4;fill-opacity:0.60784314;stroke:#b35536;stroke-width:2;stroke-linecap:round;stroke-miterlimit:4;stroke-dasharray:none;stroke-dashoffset:0;stroke-opacity:1" />
          <path
             sodipodi:nodetypes="ccccc"
             inkscape:connector-curvature="0"
             id="path6206-2-9-1-2-7"
             d="m 47.418474,487.37126 17.803938,4.9245 c 2.469675,5.10797 2.369757,9.66531 0.126269,13.76332 L 47.165935,512.12 c 3.951724,-8.22771 4.065944,-16.51868 0.252539,-24.74874 z"
             style="fill:#edcec4;fill-opacity:0.60784314;fill-rule:evenodd;stroke:#b35536;stroke-width:1px;stroke-linecap:butt;stroke-linejoin:miter;stroke-opacity:1" />
        </g>
        <path
           style="fill:none;fill-rule:evenodd;stroke:#b35536;stroke-width:0.89173973;stroke-linecap:round;stroke-linejoin:miter;stroke-miterlimit:4;stroke-dasharray:none;stroke-opacity:1"
           d="m 562.88317,759.01392 c 1.82344,0.2561 3.51262,0.84727 3.91319,4.65438 0.5599,2.02185 1.75515,3.68115 3.86892,4.8163 1.81361,1.29183 2.50566,3.18106 2.74976,5.34561"
           id="path6212-5-2-9-7-9"
           inkscape:connector-curvature="0"
           sodipodi:nodetypes="cccc" />
      </g>
    </g>
    <path
       sodipodi:nodetypes="cc"
       style="fill:none;fill-rule:evenodd;stroke:#000000;stroke-width:1.85605478;stroke-linecap:butt;stroke-linejoin:miter;stroke-miterlimit:4;stroke-dasharray:none;stroke-opacity:1"
       d="m 558.6714,697.91309 c 6.93607,15.22342 30.69682,13.33267 34.44628,13.19964"
       id="path7828-6-2"
       inkscape:connector-curvature="0" />
  </g>
</svg>
